<svg width="26" height="26" viewBox="0 0 26 26" fill="none" xmlns="http://www.w3.org/2000/svg">
<path d="M5.21476 25.3333L7.22751 15.9667L0.477051 9.66667L9.39508 8.83333L12.8632 0L16.3313 8.83333L25.2494 9.66667L18.4989 15.9667L20.5117 25.3333L12.8632 20.3667L5.21476 25.3333Z" fill="#FFD15B"/>
</svg>
