<svg width="85" height="85" viewBox="0 0 85 85" fill="none" xmlns="http://www.w3.org/2000/svg">
<rect width="85" height="85" rx="29" fill="#EDFCFF"/>
<path d="M64.5343 33.5322L20.4668 40.6997V52.8522H20.4718C20.4568 53.0385 20.633 53.221 21.0255 53.4435C21.9343 53.9585 33.3193 60.051 34.2168 60.4922C35.3355 61.041 36.018 61.1085 36.9743 60.6322C37.7568 60.2422 61.0193 47.916 63.1393 46.7897C64.218 46.216 64.5718 45.901 64.513 45.641H64.5355L64.5343 33.5322Z" fill="#093D77"/>
<path d="M20.4668 40.7002V52.8527H20.4718C20.4568 53.0389 20.633 53.2214 21.0255 53.4439C21.9343 53.9589 33.3193 60.0514 34.2168 60.4927C34.7568 60.7577 35.193 60.9039 35.6093 60.9377V40.7002H20.4668Z" fill="#093D77"/>
<path d="M47.7806 25.8526C49.1256 25.1551 49.1718 25.0676 50.5918 25.8226C52.0118 26.5776 62.8993 32.3826 63.7006 32.8088C64.7181 33.3513 65.0906 33.5476 63.1393 34.5851C61.0193 35.7126 37.7568 48.0388 36.9743 48.4276C36.0181 48.9038 35.3356 48.8363 34.2168 48.2876C33.3193 47.8476 21.9343 41.7551 21.0256 41.2388C20.0006 40.6576 20.4231 40.3563 21.9868 39.5263L47.7806 25.8526Z" fill="#8281B1"/>
<path d="M33.9855 43.7885C36.5253 43.7885 38.5842 42.7587 38.5842 41.4885C38.5842 40.2182 36.5253 39.1885 33.9855 39.1885C31.4456 39.1885 29.3867 40.2182 29.3867 41.4885C29.3867 42.7587 31.4456 43.7885 33.9855 43.7885Z" fill="#093D77"/>
<path d="M34.5517 40.9176C32.5905 40.2726 30.3617 40.4563 29.4167 41.3413C29.4105 41.3913 29.3867 41.4388 29.3867 41.4888C29.3867 42.7588 31.4455 43.7888 33.9855 43.7888C35.3142 43.7888 36.5017 43.5026 37.3405 43.0526C36.9242 42.1876 35.983 41.3876 34.5517 40.9176Z" fill="#093D77"/>
<path d="M42.4991 39.349C45.039 39.349 47.0979 38.3193 47.0979 37.049C47.0979 35.7788 45.039 34.749 42.4991 34.749C39.9593 34.749 37.9004 35.7788 37.9004 37.049C37.9004 38.3193 39.9593 39.349 42.4991 39.349Z" fill="#093D77"/>
<path d="M43.0654 36.4771C41.1041 35.8321 38.8754 36.0159 37.9304 36.9009C37.9241 36.9509 37.9004 36.9984 37.9004 37.0484C37.9004 38.3184 39.9591 39.3484 42.4991 39.3484C43.8279 39.3484 45.0154 39.0621 45.8541 38.6121C45.4379 37.7471 44.4966 36.9471 43.0654 36.4771Z" fill="#093D77"/>
<path d="M51.0128 34.9086C53.5526 34.9086 55.6116 33.8788 55.6116 32.6086C55.6116 31.3383 53.5526 30.3086 51.0128 30.3086C48.473 30.3086 46.4141 31.3383 46.4141 32.6086C46.4141 33.8788 48.473 34.9086 51.0128 34.9086Z" fill="#093D77"/>
<path d="M51.5791 32.0377C49.6178 31.3927 47.3891 31.5764 46.4441 32.4614C46.4378 32.5114 46.4141 32.5589 46.4141 32.6089C46.4141 33.8789 48.4728 34.9089 51.0128 34.9089C52.3416 34.9089 53.5278 34.6227 54.3678 34.1727C53.9516 33.3077 53.0103 32.5077 51.5791 32.0377Z" fill="#093D77"/>
</svg>
