<svg width="85" height="85" viewBox="0 0 85 85" fill="none" xmlns="http://www.w3.org/2000/svg">
<rect width="85" height="85" rx="29" fill="#EDFCFF"/>
<path d="M24.4348 50.4083C23.2118 51.6314 23.2118 53.6149 24.4348 54.838L33.6793 64.0817C34.9022 65.3062 36.8859 65.3062 38.109 64.0832L44.8806 57.3108L31.2064 43.6367L24.4348 50.4083ZM35.7274 60.8374C35.4531 61.1117 35.0059 61.1132 34.7316 60.8381L27.6792 53.7858C27.4042 53.5116 27.405 53.0642 27.6792 52.7893L30.6239 49.8453L38.6721 57.8928L35.7274 60.8374Z" fill="#093D77"/>
<path d="M58.4941 27.514L61.4844 26.642L54.8423 20L32.4434 42.3996L44.2163 54.1727L47.1762 53.2551L45.8953 50.6599L49.2778 49.3955L47.9954 46.8004L51.378 45.5368L50.0949 42.9431L53.4774 41.6795L52.1943 39.0866L55.5776 37.823L54.2937 35.2279L57.6763 33.965L56.3946 31.3713L59.7758 30.1078L58.4941 27.514Z" fill="#093D77"/>
</svg>
