<svg width="85" height="85" viewBox="0 0 85 85" fill="none" xmlns="http://www.w3.org/2000/svg">
<rect width="85" height="85" rx="29" fill="#EDFCFF"/>
<path d="M41.4449 39.6842C41.3078 40.324 40.9879 42.0959 40.9176 42.7392C40.8262 43.5549 40.8403 44.6517 40.9317 45.5342C41.002 46.2232 41.466 49.1869 41.6629 50.4349C41.7156 50.7689 41.5328 51.0924 41.2199 51.2154C40.211 51.6232 37.8133 52.5021 34.4945 53.1385C31.4676 53.7185 29.5551 53.9541 28.641 54.0455C28.2754 54.0806 27.9414 53.8416 27.8641 53.4795C27.4281 51.4721 25.9692 44.9892 24.2395 40.2361C24.018 39.6279 21.5781 32.3717 21.5781 32.3717C21.1844 31.2889 21.4586 30.2377 22.4887 29.8158C23.5469 29.3799 24.3274 29.8756 24.7246 30.8142L26.3453 35.1701C26.4227 35.3529 26.5914 35.6799 26.7813 35.6271C26.9852 35.5674 27.0379 35.3881 26.9852 35.1877C26.6371 33.8201 25.2098 29.3271 25.041 28.4658C24.809 27.274 25.1676 26.2721 26.261 25.9873C27.3543 25.7025 28.3 26.483 28.5426 27.3724C28.7852 28.2619 30.5184 34.2877 30.5184 34.2877C30.666 34.6955 31.0703 34.4107 31.0317 34.1963L29.5621 26.1525C29.2738 24.4685 30.1598 23.449 31.2707 23.4033C32.1637 23.3682 33.134 23.8041 33.4223 25.2666L34.8356 33.6654C34.934 34.0346 35.268 34.0064 35.2363 33.5705L34.7582 26.3213C34.6598 24.6057 35.377 24.0607 36.2805 24.0045C37.634 23.9201 38.1895 24.7041 38.3055 26.2123C38.3652 26.9963 38.9488 32.9412 38.9488 32.9412C38.9559 33.0361 38.9664 33.1943 38.9664 33.1943C39.3567 32.7197 39.8664 32.2416 40.675 32.231C41.4098 32.2205 42.0039 32.3822 42.359 33.7463C42.6649 34.9381 41.807 38.0037 41.4449 39.6842Z" fill="#093D77"/>
<path d="M36.7941 39.6133C36.6465 37.423 36.875 33.366 38.8894 32.4062L38.9597 33.1902C37.7328 34.8812 37.3742 39.8383 37.3496 40.5238C37.325 41.2129 36.882 40.9105 36.7941 39.6133Z" fill="#093D77"/>
<path d="M30.1432 53.8555C30.1432 53.8555 29.5983 53.7887 29.317 53.0329C29.0358 52.277 28.3537 48.8493 28.3256 48.5575C28.2658 47.9457 28.424 47.9422 28.526 47.9457C28.6596 47.9528 28.8178 48.1567 28.976 48.8071C29.2572 49.9602 30.1432 53.8555 30.1432 53.8555Z" fill="#093D77"/>
<path d="M32.8704 53.4274C32.8704 53.4274 32.3254 53.3606 32.0442 52.6048C31.7629 51.8489 31.0985 48.502 31.0669 48.2138C31.0001 47.588 31.1161 47.5598 31.1899 47.5282C31.3305 47.4684 31.5204 47.6231 31.7032 48.379C31.9809 49.5321 32.8704 53.4274 32.8704 53.4274Z" fill="#093D77"/>
<path d="M35.3434 52.931C35.3434 52.931 34.7985 52.8642 34.5172 52.1083C34.2993 51.5247 33.7333 49.106 33.5434 47.9107C33.4696 47.4431 33.5329 47.0739 33.7368 47.0704C33.8282 47.0669 33.9723 46.965 34.1797 47.8825C34.4364 49.0392 35.3434 52.931 35.3434 52.931Z" fill="#093D77"/>
<path d="M39.8261 51.7324C39.8261 51.7324 40.2867 51.4371 40.2163 50.6355C40.1601 50.0168 39.6433 47.5805 39.3093 46.4168C39.2531 46.2234 39.0773 45.7945 38.8453 45.8543C38.6132 45.9141 38.6238 46.1602 38.7328 46.6699C38.9753 47.8266 39.8261 51.7324 39.8261 51.7324Z" fill="#093D77"/>
<path d="M37.2478 52.4639C37.2478 52.4639 37.7084 52.1686 37.6381 51.367C37.5853 50.7694 37.1037 48.4948 36.7697 47.2889C36.6537 46.8705 36.5904 46.5084 36.2951 46.5049C36.042 46.5014 36.0455 46.9057 36.1545 47.4014C36.2564 47.8971 37.2478 52.4639 37.2478 52.4639Z" fill="#093D77"/>
<path d="M43.4874 48.1356C43.6209 48.7755 43.9233 50.5508 43.9936 51.1942C44.078 52.0098 44.0534 53.1067 43.9549 53.9891C43.8811 54.636 43.4487 57.2868 43.2272 58.6368C43.1874 58.8694 43.229 59.1086 43.3449 59.3141C43.4608 59.5196 43.6439 59.679 43.8635 59.7653C44.9815 60.2118 47.2596 61.0309 50.3358 61.6426C53.2432 62.2227 55.2823 62.3141 56.3475 62.3071C56.5873 62.3055 56.8192 62.2209 57.0038 62.0678C57.1884 61.9146 57.3142 61.7023 57.36 61.4669C57.7678 59.3364 58.9877 53.3985 60.6963 48.8247C60.9213 48.22 63.4209 40.9813 63.4209 40.9813C63.8217 39.902 63.5581 38.8473 62.5315 38.4184C61.4768 37.9755 60.6928 38.4641 60.285 39.3993L58.4147 43.9555C58.3374 44.1383 58.1967 44.1946 58.0948 44.1559C57.9928 44.1173 57.9858 44.0118 58.042 43.8079C58.4006 42.4438 59.8034 37.6274 59.9792 36.7696C60.1866 35.7606 59.8104 34.8219 58.7206 34.5266C57.6307 34.2348 56.7237 34.843 56.4741 35.7325C56.2245 36.6219 54.4596 43.0731 54.4596 43.0731C54.4034 43.2911 53.9815 43.2208 54.0694 42.8516L55.7991 34.6391C56.0627 33.0114 55.4264 32.1606 54.2803 31.9426C53.1377 31.7247 52.2026 32.245 51.9178 33.8727C51.9178 33.8727 50.4307 42.1485 50.378 42.3735C50.3112 42.6442 49.8999 42.6055 49.9667 42.2575L50.6206 34.5864C50.6522 33.0255 49.8295 32.4876 48.8206 32.4735C47.4108 32.4559 46.8483 33.4614 46.7288 34.8395C46.662 35.6235 46.0327 41.6633 46.0327 41.6633C46.0327 41.6633 45.3331 40.7633 44.4049 40.788C43.962 40.7985 42.8827 41.0235 42.8088 42.493C42.7491 43.5337 43.1393 46.4551 43.4874 48.1356Z" fill="#093D77"/>
<path d="M44.9573 47.9629C44.6444 45.7516 45.0452 40.9141 45.0452 40.9141C45.5409 41.0125 46.0261 41.6629 46.0261 41.6629L45.5233 48.9121C45.5233 48.9121 45.1612 49.4043 44.9573 47.9629Z" fill="#093D77"/>
<path d="M45.2589 60.2612C45.2589 60.2612 44.7878 59.9835 44.8265 59.1784C44.8581 58.5315 45.3503 55.9053 45.6245 54.7909C45.7827 54.144 45.9761 54.1686 46.0605 54.1792C46.2081 54.1932 46.3101 54.4182 46.1835 55.16C45.9831 56.3342 45.2589 60.2612 45.2589 60.2612Z" fill="#093D77"/>
<path d="M47.962 61.1083C47.962 61.1083 47.4909 60.8306 47.5296 60.0255C47.5612 59.3786 48.0429 56.7595 48.3276 55.645C48.4929 55.0017 48.6862 55.0157 48.7706 55.0263C48.9148 55.0474 49.0062 55.2091 48.8866 56.0071C48.7038 57.1814 47.962 61.1083 47.962 61.1083Z" fill="#093D77"/>
<path d="M50.3917 61.6538C50.3917 61.6538 49.9206 61.3761 49.9593 60.571C49.9909 59.9241 50.6413 56.7003 50.7573 56.187C50.8733 55.6737 50.9859 55.4804 51.1687 55.5085C51.3515 55.5366 51.464 55.6808 51.3163 56.5527C51.1159 57.7269 50.3917 61.6538 50.3917 61.6538Z" fill="#093D77"/>
<path d="M54.9766 62.2403C54.9766 62.2403 55.518 62.1489 55.7676 61.386C55.9715 60.7637 56.4953 58.1094 56.6184 56.9844C56.6465 56.7207 56.6254 56.2532 56.4566 56.211C56.316 56.1758 56.1438 56.2215 55.9645 57.1532C55.7465 58.3203 54.9766 62.2403 54.9766 62.2403Z" fill="#093D77"/>
<path d="M52.3711 61.9769C52.3711 61.9769 52.9125 61.8855 53.1621 61.1226C53.4117 60.3597 53.9777 56.7562 53.9988 56.4644C54.027 56.0355 53.9004 55.9195 53.7387 55.9581C53.5734 55.9933 53.4574 56.4152 53.3625 56.8933C53.0295 58.5873 52.699 60.2819 52.3711 61.9769Z" fill="#093D77"/>
</svg>
