<svg width="85" height="85" viewBox="0 0 85 85" fill="none" xmlns="http://www.w3.org/2000/svg">
<rect width="85" height="85" rx="29" fill="#EDFCFF"/>
<g clip-path="url(#clip0_7431_32234)">
<path fill-rule="evenodd" clip-rule="evenodd" d="M52.2279 51.7654H29.1176C34.5385 32.0708 38.7694 51.3208 42.9365 45.3419C48.1247 37.8993 53.7021 37.9466 55.8823 51.7654H52.2279ZM37.3529 31.1772C39.6279 31.1772 41.4706 33.0219 41.4706 35.2949C41.4706 37.5678 39.6279 39.4125 37.3529 39.4125C35.08 39.4125 33.2353 37.5678 33.2353 35.2949C33.2353 33.0219 35.08 31.1772 37.3529 31.1772ZM25 57.9419H60V27.0596H25V57.9419Z" fill="#093D77"/>
</g>
<defs>
<clipPath id="clip0_7431_32234">
<rect width="35" height="35" fill="white" transform="translate(25 25)"/>
</clipPath>
</defs>
</svg>
